%YAML 1.1
%TAG !u! tag:unity3d.com,2011:
--- !u!114 &11400000
MonoBehaviour:
  m_ObjectHideFlags: 0
  m_CorrespondingSourceObject: {fileID: 0}
  m_PrefabInstance: {fileID: 0}
  m_PrefabAsset: {fileID: 0}
  m_GameObject: {fileID: 0}
  m_Enabled: 1
  m_EditorHideFlags: 0
  m_Script: {fileID: 11500000, guid: 50f51f567a124de093f050beaa980a4c, type: 3}
  m_Name: TilesVivid
  m_EditorClassIdentifier: 
  TileViewPrefab: {fileID: 7786330389854354214, guid: b8609df5083b2d244b3c231ab4608e5d,
    type: 3}
  Tiles:
  - TileType: 1
    Color: {r: 1, g: 0, b: 0.03750038, a: 1}
  - TileType: 2
    Color: {r: 0.9811321, g: 0.71239096, b: 0.22677112, a: 1}
  - TileType: 4
    Color: {r: 1, g: 0.98042595, b: 0.5330188, a: 1}
  - TileType: 8
    Color: {r: 0.3160377, g: 1, b: 0.3423439, a: 1}
  - TileType: 16
    Color: {r: 0, g: 0.23749971, b: 1, a: 1}
  - TileType: 32
    Color: {r: 0.6153846, g: 0, b: 1, a: 1}
